E Practice Problems | The Tidynomicon
…
measurements <- readr::read_csv(here::here("data", "measurements.csv"))

Parsed with column specification:
cols(
  visit_id = col_double(),
  person_id = col_character(),
  quantity = col_character(),
  reading = col_double()
)

measurements

# A tibble: 21 x 4
   visit_id person_id quantity reading
      <dbl> <chr>     <chr>      <dbl>
 1      619 dyer      rad         9.82
 2      619 dyer      sal         0.13
 3      622 dyer      rad         7.8 
 4      622 dyer      sal         0.09
 5      734 pb        rad         8.41
 6      734 lake      sal         0.05
 7      734 pb        temp      -21.5 
 8      735 pb        rad         7.22
 9      735 <NA>      sal         0.06
10      735 <NA>      temp      -26   
# … with 11 more rows
…
