Chapter 5 Creating Packages | The Tidynomicon
…
names(percents) <- headers

Warning: The `value` argument of ``names<-`()` must have the same length as `x` as of tibble 3.0.0.
`names` must have length 28, not 27.
This warning is displayed once every 8 hours.
Call `lifecycle::last_warnings()` to see where this warning was generated.

Warning: The `value` argument of ``names<-`()` can't be empty as of tibble 3.0.0.
Column 28 must be named.
This warning is displayed once every 8 hours.
Call `lifecycle::last_warnings()` to see where this warning was generated.

percents

# A tibble: 192 x 28
   `2009-est` `2009-hi` `2009-lo` `2010-est` `2010-hi` `2010-lo` `2011-est`
        <dbl>     <dbl>     <dbl>      <dbl>     <dbl>     <dbl>      <dbl>
 1         NA        NA        NA      NA        NA        NA         NA   
 2         NA        NA        NA      NA        NA        NA         NA   
 3         NA        NA        NA      NA        NA        NA          0.38
 4         NA        NA        NA       0.03      0.04      0.02       0.05
 5         NA        NA        NA      NA        NA        NA         NA   
 6         NA        NA        NA      NA        NA        NA         NA   
 7         NA        NA        NA      NA        NA        NA          0.13
 8         NA        NA        NA      NA        NA        NA         NA   
 9         NA        NA        NA      NA        NA        NA         NA   
10         NA        NA        NA      NA        NA        NA         NA   
# … with 182 more rows, and 21 more variables: `2011-hi` <dbl>,
#   `2011-lo` <dbl>, `2012-est` <dbl>, `2012-hi` <dbl>, `2012-lo` <dbl>,
#   `2013-est` <dbl>, `2013-hi` <dbl>, `2013-lo` <dbl>, `2014-est` <dbl>,
#   `2014-hi` <dbl>, `2014-lo` <dbl>, `2015-est` <dbl>, `2015-hi` <dbl>,
#   `2015-lo` <dbl>, `2016-est` <dbl>, `2016-hi` <dbl>, `2016-lo` <dbl>,
#   `2017-est` <dbl>, `2017-hi` <dbl>, `2017-lo` <dbl>, NA <dbl>

This example shows that names(table) doesn’t just give us a list of column names:
it gives us something we can assign to when we want to rename those columns.
This example also shows us that percents has the wrong number of columns.
Inspecting the tibble in the console,
we see that the last column is full of NAs:

percents[, ncol(percents)]

# A tibble: 192 x 1
      ``
   <dbl>
 1    NA
 2    NA
 3    NA
 4    NA
 5    NA
 6    NA
 7    NA
 8    NA
 9    NA
10    NA
# … with 182 more rows

all(is.na(percents[,ncol(percents)]))

[1] TRUE

Let’s relabel our data again and then drop the empty column.
(There are other ways to do this, but I find steps easier to read after the fact this way.)

headers <- c(headers, "empty")
names(percents) <- headers
percents <- select(percents, -empty)
percents

# A tibble: 192 x 27
   `2009-est` `2009-hi` `2009-lo` `2010-est` `2010-hi` `2010-lo` `2011-est`
        <dbl>     <dbl>     <dbl>      <dbl>     <dbl>     <dbl>      <dbl>
 1         NA        NA        NA      NA        NA        NA         NA   
 2         NA        NA        NA      NA        NA        NA         NA   
 3         NA        NA        NA      NA        NA        NA          0.38
 4         NA        NA        NA       0.03      0.04      0.02       0.05
 5         NA        NA        NA      NA        NA        NA         NA   
 6         NA        NA        NA      NA        NA        NA         NA   
 7         NA        NA        NA      NA        NA        NA          0.13
 8         NA        NA        NA      NA        NA        NA         NA   
 9         NA        NA        NA      NA        NA        NA         NA   
10         NA        NA        NA      NA        NA        NA         NA   
# … with 182 more rows, and 20 more variables: `2011-hi` <dbl>,
#   `2011-lo` <dbl>, `2012-est` <dbl>, `2012-hi` <dbl>, `2012-lo` <dbl>,
#   `2013-est` <dbl>, `2013-hi` <dbl>, `2013-lo` <dbl>, `2014-est` <dbl>,
#   `2014-hi` <dbl>, `2014-lo` <dbl>, `2015-est` <dbl>, `2015-hi` <dbl>,
#   `2015-lo` <dbl>, `2016-est` <dbl>, `2016-hi` <dbl>, `2016-lo` <dbl>,
#   `2017-est` <dbl>, `2017-hi` <dbl>, `2017-lo` <dbl>

It’s time to put the country codes back on the table,
move the year and kind from column headers to a column with pivot_longer,
and then split that column with separate:

final <- percents %>%
  mutate(country = countries) %>%
  pivot_longer(-country, names_to = "year_kind", values_to = "reported") %>%
  separate(year_kind, c("year", "kind"), sep = "-")
final

# A tibble: 5,184 x 4
   country year  kind  reported
   <chr>   <chr> <chr>    <dbl>
 1 AFG     2009  est         NA
 2 AFG     2009  hi          NA
 3 AFG     2009  lo          NA
 4 AFG     2010  est         NA
 5 AFG     2010  hi          NA
 6 AFG     2010  lo          NA
 7 AFG     2011  est         NA
 8 AFG     2011  hi          NA
 9 AFG     2011  lo          NA
10 AFG     2012  est         NA
# … with 5,174 more rows
…
Parsed with column specification:
cols(
  .default = col_character(),
  X30 = col_logical()
)

See spec(...) for full column specifications.

Warning: Expected 2 pieces. Missing pieces filled with `NA` in 192 rows [28, 56,
84, 112, 140, 168, 196, 224, 252, 280, 308, 336, 364, 392, 420, 448, 476, 504,
532, 560, ...].

# A tibble: 5,376 x 4
   country year  kind  reported
   <chr>   <chr> <chr>    <dbl>
 1 AFG     2009  est         NA
 2 AFG     2009  hi          NA
 3 AFG     2009  lo          NA
 4 AFG     2010  est         NA
 5 AFG     2010  hi          NA
 6 AFG     2010  lo          NA
 7 AFG     2011  est         NA
 8 AFG     2011  hi          NA
 9 AFG     2011  lo          NA
10 AFG     2012  est         NA
# … with 5,366 more rows
…
